02-mux-4to1/simulation/qsim/mux4to1.msim.vcd
$comment
	File created using the following command:
		vcd file mux4to1.msim.vcd -direction
$end
$date
	Sun Jan 04 16:56:37 2026
$end
$version
	ModelSim Version 10.5b
$end
$timescale
	1ps
$end

$scope module mux4to1_vlg_vec_tst $end
$var reg 4 ! i [3:0] $end
$var reg 2 " s [1:0] $end
$var wire 1 # y $end

$scope module i1 $end
$var wire 1 $ gnd $end
$var wire 1 % vcc $end
$var wire 1 & unknown $end
$var tri1 1 ' devclrn $end
$var tri1 1 ( devpor $end
$var tri1 1 ) devoe $end
$var wire 1 * y~output_o $end
$var wire 1 + i[0]~input_o $end
$var wire 1 , i[1]~input_o $end
$var wire 1 - s[1]~input_o $end
$var wire 1 . s[0]~input_o $end
$var wire 1 / mux_tmp2|o_g~0_combout $end
$var wire 1 0 i[3]~input_o $end
$var wire 1 1 i[2]~input_o $end
$var wire 1 2 mux_tmp2|o_g~1_combout $end
$upscope $end
$upscope $end
$enddefinitions $end
#0
$dumpvars
b0 !
b0 "
0#
0$
1%
x&
1'
1(
1)
0*
0+
0,
0-
0.
0/
00
01
02
$end
#20000
b1 !
1+
1/
12
1*
1#
#40000
b11 !
b10 !
0+
1,
0/
02
0*
0#
#60000
b1 "
b11 !
1+
1.
1/
12
1*
1#
#80000
b111 !
b101 !
b100 !
0+
0,
11
0/
02
0*
0#
#100000
b101 !
1+
#120000
b11 "
b10 "
b111 !
b110 !
0+
1,
0.
1-
12
1*
1#
#140000
b111 !
1+
#160000
b1111 !
b1011 !
b1001 !
b1000 !
0+
0,
01
10
02
0*
0#
#180000
b11 "
b1001 !
1+
1.
1/
12
1*
1#
#200000
b1011 !
b1010 !
0+
1,
#220000
b1011 !
1+
#240000
b1 "
b1111 !
b0 "
b1101 !
b1100 !
0+
0,
11
0.
0-
0/
02
0*
0#
#260000
b1101 !
1+
1/
12
1*
1#
#280000
b1111 !
b1110 !
0+
1,
0/
02
0*
0#
#300000
b1 "
b1111 !
1+
1.
1/
12
1*
1#
#320000
b111 !
b11 !
b1 !
b0 !
0+
0,
01
00
0/
02
0*
0#
#340000
b1 !
1+
#360000
b11 "
b10 "
b11 !
b10 !
0+
1,
0.
1-
#380000
b11 !
1+
#400000
b111 !
b101 !
b100 !
0+
0,
11
12
1*
1#
#420000
b11 "
b101 !
1+
1.
1/
02
0*
0#
#440000
b111 !
b110 !
0+
1,
#460000
b111 !
1+
#480000
b1111 !
b1 "
b1011 !
b0 "
b1001 !
b1000 !
0.
0-
0+
0,
01
10
0/
12
1*
1#
02
0*
0#
#500000
b1001 !
1+
1/
12
1*
1#
#520000
b1011 !
b1010 !
0+
1,
0/
02
0*
0#
#540000
b1 "
b1011 !
1+
1.
1/
12
1*
1#
#560000
b1111 !
b1101 !
b1100 !
0+
0,
11
0/
02
0*
0#
#580000
b1101 !
1+
#600000
b11 "
b10 "
b1111 !
b1110 !
0+
1,
0.
1-
12
1*
1#
#620000
b1111 !
1+
#640000
b111 !
b11 !
b1 !
b0 !
0+
0,
01
00
02
0*
0#
#660000
b11 "
b1 !
1+
1.
1/
#680000
b11 !
b10 !
0+
1,
#700000
b11 !
1+
#720000
b1 "
b111 !
b0 "
b101 !
b100 !
0+
0,
11
0.
0-
0/
12
1*
1#
02
0*
0#
#740000
b101 !
1+
1/
12
1*
1#
#760000
b111 !
b110 !
0+
1,
0/
02
0*
0#
#780000
b1 "
b111 !
1+
1.
1/
12
1*
1#
#800000
b1111 !
b1011 !
b1001 !
b1000 !
0+
0,
01
10
0/
02
0*
0#
#820000
b1001 !
1+
#840000
b11 "
b10 "
b1011 !
b1010 !
0+
1,
0.
1-
#860000
b1011 !
1+
#880000
b1111 !
b1101 !
b1100 !
0+
0,
11
12
1*
1#
#900000
b11 "
b1101 !
1+
1.
1/
#920000
b1111 !
b1110 !
0+
1,
#940000
b1111 !
1+
#960000
b111 !
b1 "
b11 !
b0 "
b1 !
b0 !
0.
0-
0+
0,
01
00
0/
02
0*
0#
#980000
b1 !
1+
1/
12
1*
1#
