01-mux-2to1/simulation/qsim/mux2to1.msim.vcd
$comment
	File created using the following command:
		vcd file mux2to1.msim.vcd -direction
$end
$date
	Sat Jan 03 22:59:18 2026
$end
$version
	ModelSim Version 10.5b
$end
$timescale
	1ps
$end

$scope module mux2to1_vlg_vec_tst $end
$var reg 1 ! a $end
$var reg 1 " b $end
$var reg 1 # sel $end
$var wire 1 $ c $end

$scope module i1 $end
$var wire 1 % gnd $end
$var wire 1 & vcc $end
$var wire 1 ' unknown $end
$var tri1 1 ( devclrn $end
$var tri1 1 ) devpor $end
$var tri1 1 * devoe $end
$var wire 1 + c~output_o $end
$var wire 1 , b~input_o $end
$var wire 1 - sel~input_o $end
$var wire 1 . a~input_o $end
$var wire 1 / o_g~0_combout $end
$upscope $end
$upscope $end
$enddefinitions $end
#0
$dumpvars
0!
0"
0#
x$
0%
1&
x'
1(
1)
1*
x+
0,
0-
0.
x/
$end
#3612
0/
#9670
0+
0$
#20000
1!
#20700
1.
#23620
1/
#29546
1+
1$
#40000
1"
0!
#40700
1,
#40806
0.
#43965
0/
#50023
0+
0$
#60000
1!
#60700
1.
#63620
1/
#69546
1+
1$
#80000
1#
0"
0!
#80700
1-
#80806
0.
0,
#84562
0/
#90620
0+
0$
#100000
1!
#100700
1.
#120000
1"
0!
#120700
1,
#120806
0.
#124186
1/
#130112
1+
1$
#140000
1!
#140700
1.
#160000
0#
0"
0!
#160806
0.
0,
0-
#164418
0/
#170476
0+
0$
